Exercice 1:

Var: S,H,B:reel
Début
Ecrire "Donner H"
        lire H
Ecrire "Donner B"
        lire B
     S <-- (H*B)/2
Ecrire "S est :", S
fin

Exercice 2:

var: ht,tva,ttc
Début
ecrire "entree le prix ht"
         lire ht
ecrire "entrer le taux tva"
         lire tva
	ttc <-- ht*(1+(tva/100)
ecrire "le prix ttc est:",ttc
fin


Exercice 3:

var x,y,v Reelles
Début
ecrire "donner la valeur x"
     lire x
ecrire "donner la valeur de y"
     lire y
   v <-- x
   x <-- y
   y <-- v
 ecrire " la valeur de x est:"x
 ecrire "la valeur de y est:" y
fin

exercice 4:

var: i:Entier
     x,somme,moyenne:Reel
Début
ecrire"écrire la moyenne"
  lire moyenne
    somme <---0
    pour i=1 a 20 faire
  ecrire "entrer un nombre"
  lire x
  somme <-- somme+x
  fin pour
  moyenne <-- somme/x
  ecrire "la moyenne est:",la moyenne:
fin

exrcice 5:


var: i:entier
     n,u,d,c,r : reel
début
ecrire "entrer les 3 nombres"
     lire nombres
c:= n div 100
d:=(n div 10) mod 10
u:= n mod 10
r= c+d+u
ecrire "la some est:" r
fin



